[
  {
    "Id": "1",
    "Name": "Internal",
    "Address": "Not Applicable",
    "EIK": "000000000",
    "Discount": "0"
  },
  {
    "Id": "2",
    "Name": "ClientCompany",
    "Address": "ClientCompanyAddress",
    "EIK": "200000001",
    "Discount": "20"
  }
]
